<?xml version="1.0" encoding="UTF-8" standalone="no"?>
<!-- Created with Inkscape (http://www.inkscape.org/) -->

<svg
   xmlns:dc="http://purl.org/dc/elements/1.1/"
   xmlns:cc="http://creativecommons.org/ns#"
   xmlns:rdf="http://www.w3.org/1999/02/22-rdf-syntax-ns#"
   xmlns:svg="http://www.w3.org/2000/svg"
   xmlns="http://www.w3.org/2000/svg"
   xmlns:sodipodi="http://sodipodi.sourceforge.net/DTD/sodipodi-0.dtd"
   xmlns:inkscape="http://www.inkscape.org/namespaces/inkscape"
   width="744.09448819"
   height="1052.3622047"
   id="svg3216"
   version="1.1"
   inkscape:version="0.92.4 (5da689c313, 2019-01-14)"
   sodipodi:docname="architecture2_new.svg">
  <defs
     id="defs3218">
    <marker
       inkscape:stockid="Arrow1Send"
       orient="auto"
       refY="0.0"
       refX="0.0"
       id="Arrow1Send"
       style="overflow:visible;">
      <path
         id="path5860"
         d="M 0.0,0.0 L 5.0,-5.0 L -12.5,0.0 L 5.0,5.0 L 0.0,0.0 z "
         style="fill-rule:evenodd;stroke:#000000;stroke-width:1.0pt;marker-start:none;"
         transform="scale(0.2) rotate(180) translate(6,0)" />
    </marker>
    <marker
       inkscape:stockid="Arrow2Mend"
       orient="auto"
       refY="0.0"
       refX="0.0"
       id="Arrow2Mend"
       style="overflow:visible;">
      <path
         id="path5872"
         style="font-size:12.0;fill-rule:evenodd;stroke-width:0.62500000;stroke-linejoin:round;"
         d="M 8.7185878,4.0337352 L -2.2072895,0.016013256 L 8.7185884,-4.0017078 C 6.9730900,-1.6296469 6.9831476,1.6157441 8.7185878,4.0337352 z "
         transform="scale(0.6) rotate(180) translate(0,0)" />
    </marker>
    <marker
       inkscape:stockid="Arrow2Lend"
       orient="auto"
       refY="0.0"
       refX="0.0"
       id="Arrow2Lend"
       style="overflow:visible;">
      <path
         id="path5866"
         style="font-size:12.0;fill-rule:evenodd;stroke-width:0.62500000;stroke-linejoin:round;"
         d="M 8.7185878,4.0337352 L -2.2072895,0.016013256 L 8.7185884,-4.0017078 C 6.9730900,-1.6296469 6.9831476,1.6157441 8.7185878,4.0337352 z "
         transform="scale(1.1) rotate(180) translate(1,0)" />
    </marker>
    <inkscape:perspective
       sodipodi:type="inkscape:persp3d"
       inkscape:vp_x="0 : 526.18109 : 1"
       inkscape:vp_y="0 : 1000 : 0"
       inkscape:vp_z="744.09448 : 526.18109 : 1"
       inkscape:persp3d-origin="372.04724 : 350.78739 : 1"
       id="perspective3224" />
    <inkscape:perspective
       id="perspective3206"
       inkscape:persp3d-origin="0.5 : 0.33333333 : 1"
       inkscape:vp_z="1 : 0.5 : 1"
       inkscape:vp_y="0 : 1000 : 0"
       inkscape:vp_x="0 : 0.5 : 1"
       sodipodi:type="inkscape:persp3d" />
    <inkscape:perspective
       id="perspective4053"
       inkscape:persp3d-origin="0.5 : 0.33333333 : 1"
       inkscape:vp_z="1 : 0.5 : 1"
       inkscape:vp_y="0 : 1000 : 0"
       inkscape:vp_x="0 : 0.5 : 1"
       sodipodi:type="inkscape:persp3d" />
    <inkscape:perspective
       id="perspective6911"
       inkscape:persp3d-origin="0.5 : 0.33333333 : 1"
       inkscape:vp_z="1 : 0.5 : 1"
       inkscape:vp_y="0 : 1000 : 0"
       inkscape:vp_x="0 : 0.5 : 1"
       sodipodi:type="inkscape:persp3d" />
    <inkscape:perspective
       id="perspective6945"
       inkscape:persp3d-origin="0.5 : 0.33333333 : 1"
       inkscape:vp_z="1 : 0.5 : 1"
       inkscape:vp_y="0 : 1000 : 0"
       inkscape:vp_x="0 : 0.5 : 1"
       sodipodi:type="inkscape:persp3d" />
    <inkscape:perspective
       id="perspective6995"
       inkscape:persp3d-origin="0.5 : 0.33333333 : 1"
       inkscape:vp_z="1 : 0.5 : 1"
       inkscape:vp_y="0 : 1000 : 0"
       inkscape:vp_x="0 : 0.5 : 1"
       sodipodi:type="inkscape:persp3d" />
    <inkscape:perspective
       id="perspective6995-4"
       inkscape:persp3d-origin="0.5 : 0.33333333 : 1"
       inkscape:vp_z="1 : 0.5 : 1"
       inkscape:vp_y="0 : 1000 : 0"
       inkscape:vp_x="0 : 0.5 : 1"
       sodipodi:type="inkscape:persp3d" />
    <inkscape:perspective
       id="perspective7050"
       inkscape:persp3d-origin="0.5 : 0.33333333 : 1"
       inkscape:vp_z="1 : 0.5 : 1"
       inkscape:vp_y="0 : 1000 : 0"
       inkscape:vp_x="0 : 0.5 : 1"
       sodipodi:type="inkscape:persp3d" />
    <inkscape:perspective
       id="perspective7078"
       inkscape:persp3d-origin="0.5 : 0.33333333 : 1"
       inkscape:vp_z="1 : 0.5 : 1"
       inkscape:vp_y="0 : 1000 : 0"
       inkscape:vp_x="0 : 0.5 : 1"
       sodipodi:type="inkscape:persp3d" />
    <inkscape:perspective
       id="perspective7106"
       inkscape:persp3d-origin="0.5 : 0.33333333 : 1"
       inkscape:vp_z="1 : 0.5 : 1"
       inkscape:vp_y="0 : 1000 : 0"
       inkscape:vp_x="0 : 0.5 : 1"
       sodipodi:type="inkscape:persp3d" />
    <inkscape:perspective
       id="perspective7196"
       inkscape:persp3d-origin="0.5 : 0.33333333 : 1"
       inkscape:vp_z="1 : 0.5 : 1"
       inkscape:vp_y="0 : 1000 : 0"
       inkscape:vp_x="0 : 0.5 : 1"
       sodipodi:type="inkscape:persp3d" />
    <inkscape:perspective
       id="perspective7224"
       inkscape:persp3d-origin="0.5 : 0.33333333 : 1"
       inkscape:vp_z="1 : 0.5 : 1"
       inkscape:vp_y="0 : 1000 : 0"
       inkscape:vp_x="0 : 0.5 : 1"
       sodipodi:type="inkscape:persp3d" />
    <inkscape:perspective
       id="perspective7250"
       inkscape:persp3d-origin="0.5 : 0.33333333 : 1"
       inkscape:vp_z="1 : 0.5 : 1"
       inkscape:vp_y="0 : 1000 : 0"
       inkscape:vp_x="0 : 0.5 : 1"
       sodipodi:type="inkscape:persp3d" />
  </defs>
  <sodipodi:namedview
     id="base"
     pagecolor="#ffffff"
     bordercolor="#666666"
     borderopacity="1.0"
     inkscape:pageopacity="0.0"
     inkscape:pageshadow="2"
     inkscape:zoom="1.4142136"
     inkscape:cx="312.09294"
     inkscape:cy="543.07685"
     inkscape:document-units="px"
     inkscape:current-layer="g14260"
     showgrid="false"
     inkscape:window-width="1920"
     inkscape:window-height="932"
     inkscape:window-x="0"
     inkscape:window-y="27"
     inkscape:window-maximized="1"
     showguides="true"
     inkscape:guide-bbox="true">
    <sodipodi:guide
       position="836.5073,706.39966"
       orientation="0,1"
       id="guide3921"
       inkscape:locked="false" />
  </sodipodi:namedview>
  <metadata
     id="metadata3221">
    <rdf:RDF>
      <cc:Work
         rdf:about="">
        <dc:format>image/svg+xml</dc:format>
        <dc:type
           rdf:resource="http://purl.org/dc/dcmitype/StillImage" />
        <dc:title />
      </cc:Work>
    </rdf:RDF>
  </metadata>
  <g
     inkscape:label="Layer 1"
     inkscape:groupmode="layer"
     id="layer1">
    <g
       id="g14260"
       transform="translate(-191.71285,73.466798)"
       style="opacity:0.8">
      <rect
         rx="4.9283843"
         ry="8.057991"
         y="419.47391"
         x="343.3927"
         height="88.48732"
         width="434.6445"
         id="rect10544-7-01-1"
         style="opacity:0.85477181;fill:#e6e6e6;fill-opacity:0.98823529;stroke:#464646;stroke-width:2.36318088;stroke-linecap:square;stroke-linejoin:round;stroke-miterlimit:4;stroke-dasharray:none;stroke-dashoffset:0;stroke-opacity:1" />
      <rect
         rx="4.9203882"
         ry="8.0581636"
         y="323.7124"
         x="343.62405"
         height="88.489212"
         width="433.9393"
         id="rect10544-7-01"
         style="opacity:0.85477181;fill:#e6e6e6;fill-opacity:0.98823529;stroke:#464646;stroke-width:2.36128807;stroke-linecap:square;stroke-linejoin:round;stroke-miterlimit:4;stroke-dasharray:none;stroke-dashoffset:0;stroke-opacity:1" />
      <rect
         rx="8"
         ry="8"
         y="450.73065"
         x="348.80768"
         height="45.898663"
         width="164.03519"
         id="rect10544-7"
         style="opacity:0.8;fill:#c9c9c9;fill-opacity:0.98823529;stroke:#4993ca;stroke-width:2.5;stroke-linecap:square;stroke-linejoin:round;stroke-miterlimit:4;stroke-dasharray:none;stroke-dashoffset:0;stroke-opacity:1" />
      <text
         id="text12000-7"
         y="471.33603"
         x="361.59155"
         style="font-style:normal;font-variant:normal;font-weight:normal;font-stretch:normal;line-height:0%;font-family:'Trebuchet MS';text-align:start;writing-mode:lr-tb;text-anchor:start;opacity:0.8;fill:#000000;fill-opacity:1;stroke:none"
         xml:space="preserve"><tspan
           y="471.33603"
           x="361.59155"
           id="tspan12002-2"
           sodipodi:role="line"
           style="font-size:14px;line-height:1.25">System log /dev/log</tspan></text>
      <text
         id="text12730-3"
         y="487.84479"
         x="445.46475"
         style="font-style:italic;font-variant:normal;font-weight:normal;font-stretch:normal;line-height:0%;font-family:'Trebuchet MS';text-align:start;writing-mode:lr-tb;text-anchor:start;opacity:0.8;fill:#000000;fill-opacity:1;stroke:none"
         xml:space="preserve"><tspan
           y="487.84479"
           x="445.46475"
           id="tspan12732-7"
           sodipodi:role="line"
           style="font-size:11.69373512px;line-height:1.25">im_uds</tspan></text>
      <g
         transform="matrix(0.79808918,0,0,1,211.31346,98.141575)"
         style="opacity:0.8"
         id="g6878-2">
        <path
           sodipodi:nodetypes="cc"
           id="path10399-5"
           d="m 379.0037,375.25995 c 57.33614,-0.0482 57.61795,-0.10399 108.09772,-0.3665"
           style="fill:#4993ca;fill-opacity:0.98739492;fill-rule:evenodd;stroke:#4993ca;stroke-width:2.5;stroke-linecap:butt;stroke-linejoin:miter;stroke-miterlimit:4;stroke-dasharray:none;stroke-dashoffset:0;stroke-opacity:0.98739492;marker-end:none"
           inkscape:connector-curvature="0" />
        <path
           sodipodi:nodetypes="ccc"
           id="path6876-3"
           d="m 478.59617,370.53101 11.11168,4.54569 -11.61675,4.0406"
           style="fill:none;stroke:#4993ca;stroke-width:2.5;stroke-linecap:butt;stroke-linejoin:miter;stroke-miterlimit:4;stroke-dasharray:none;stroke-opacity:0.98823529"
           inkscape:connector-curvature="0" />
      </g>
      <rect
         rx="8"
         ry="8"
         y="451.44495"
         x="606.52191"
         height="45.898663"
         width="164.03519"
         id="rect10544-7-0"
         style="opacity:0.8;fill:#c9c9c9;fill-opacity:0.98823529;stroke:#4993ca;stroke-width:2.5;stroke-linecap:square;stroke-linejoin:round;stroke-miterlimit:4;stroke-dasharray:none;stroke-dashoffset:0;stroke-opacity:1" />
      <text
         id="text12000-7-3"
         y="471.33603"
         x="620.73444"
         style="font-style:normal;font-variant:normal;font-weight:normal;font-stretch:normal;line-height:0%;font-family:'Trebuchet MS';text-align:start;writing-mode:lr-tb;text-anchor:start;opacity:0.8;fill:#000000;fill-opacity:1;stroke:none"
         xml:space="preserve"><tspan
           y="471.33603"
           x="620.73444"
           id="tspan12002-2-5"
           sodipodi:role="line"
           style="font-size:14px;line-height:1.25">File output</tspan></text>
      <text
         id="text12730-3-8"
         y="485.70197"
         x="715.3219"
         style="font-style:italic;font-variant:normal;font-weight:normal;font-stretch:normal;line-height:0%;font-family:'Trebuchet MS';text-align:start;writing-mode:lr-tb;text-anchor:start;opacity:0.8;fill:#000000;fill-opacity:1;stroke:none"
         xml:space="preserve"><tspan
           y="485.70197"
           x="715.3219"
           id="tspan12732-7-5"
           sodipodi:role="line"
           style="font-size:11.69373512px;line-height:1.25">om_file</tspan></text>
      <text
         xml:space="preserve"
         style="color:#000000;font-style:normal;font-variant:normal;font-weight:normal;font-stretch:normal;line-height:0%;font-family:'Bitstream Vera Sans';text-indent:0;text-align:start;text-decoration:none;text-decoration-line:none;letter-spacing:normal;word-spacing:normal;text-transform:none;writing-mode:lr-tb;direction:ltr;text-anchor:start;display:inline;overflow:visible;visibility:visible;fill:#000000;fill-opacity:1;fill-rule:nonzero;stroke:none;stroke-width:1px;marker:none;enable-background:accumulate"
         x="622.82526"
         y="485.82285"
         id="text7038"><tspan
           sodipodi:role="line"
           id="tspan7040"
           x="622.82526"
           y="485.82285"
           style="font-size:10px;line-height:0">/var/log/error.log</tspan></text>
      <rect
         rx="8"
         ry="8"
         y="353.80319"
         x="349.69528"
         height="45.898663"
         width="164.03519"
         id="rect10544-7-4"
         style="opacity:0.8;fill:#c9c9c9;fill-opacity:0.98823529;stroke:#4993ca;stroke-width:2.5;stroke-linecap:square;stroke-linejoin:round;stroke-miterlimit:4;stroke-dasharray:none;stroke-dashoffset:0;stroke-opacity:1" />
      <text
         id="text12000-7-9"
         y="374.40854"
         x="362.47922"
         style="font-style:normal;font-variant:normal;font-weight:normal;font-stretch:normal;line-height:0%;font-family:'Trebuchet MS';text-align:start;writing-mode:lr-tb;text-anchor:start;opacity:0.8;fill:#000000;fill-opacity:1;stroke:none"
         xml:space="preserve"><tspan
           y="374.40854"
           x="362.47922"
           id="tspan12002-2-0"
           sodipodi:role="line"
           style="font-size:14px;line-height:1.25">System log /dev/log</tspan></text>
      <text
         id="text12730-3-1"
         y="390.91733"
         x="446.35239"
         style="font-style:italic;font-variant:normal;font-weight:normal;font-stretch:normal;line-height:0%;font-family:'Trebuchet MS';text-align:start;writing-mode:lr-tb;text-anchor:start;opacity:0.8;fill:#000000;fill-opacity:1;stroke:none"
         xml:space="preserve"><tspan
           y="390.91733"
           x="446.35239"
           id="tspan12732-7-2"
           sodipodi:role="line"
           style="font-size:11.69373512px;line-height:1.25">im_uds</tspan></text>
      <rect
         rx="8"
         ry="8"
         y="354.51749"
         x="607.40948"
         height="45.898663"
         width="164.03519"
         id="rect10544-7-0-7"
         style="opacity:0.8;fill:#c9c9c9;fill-opacity:0.98823529;stroke:#4993ca;stroke-width:2.5;stroke-linecap:square;stroke-linejoin:round;stroke-miterlimit:4;stroke-dasharray:none;stroke-dashoffset:0;stroke-opacity:1" />
      <text
         id="text12000-7-3-3"
         y="374.40854"
         x="621.62201"
         style="font-style:normal;font-variant:normal;font-weight:normal;font-stretch:normal;line-height:0%;font-family:'Trebuchet MS';text-align:start;writing-mode:lr-tb;text-anchor:start;opacity:0.8;fill:#000000;fill-opacity:1;stroke:none"
         xml:space="preserve"><tspan
           y="374.40854"
           x="621.62201"
           id="tspan12002-2-5-1"
           sodipodi:role="line"
           style="font-size:14px;line-height:1.25">File output</tspan></text>
      <text
         id="text12730-3-8-0"
         y="388.77451"
         x="716.20941"
         style="font-style:italic;font-variant:normal;font-weight:normal;font-stretch:normal;line-height:0%;font-family:'Trebuchet MS';text-align:start;writing-mode:lr-tb;text-anchor:start;opacity:0.8;fill:#000000;fill-opacity:1;stroke:none"
         xml:space="preserve"><tspan
           y="388.77451"
           x="716.20941"
           id="tspan12732-7-5-0"
           sodipodi:role="line"
           style="font-size:11.69373512px;line-height:1.25">om_file</tspan></text>
      <text
         xml:space="preserve"
         style="color:#000000;font-style:normal;font-variant:normal;font-weight:normal;font-stretch:normal;line-height:0%;font-family:'Bitstream Vera Sans';text-indent:0;text-align:start;text-decoration:none;text-decoration-line:none;letter-spacing:normal;word-spacing:normal;text-transform:none;writing-mode:lr-tb;direction:ltr;text-anchor:start;display:inline;overflow:visible;visibility:visible;opacity:0.8;fill:#000000;fill-opacity:1;fill-rule:nonzero;stroke:none;stroke-width:1px;marker:none;enable-background:accumulate"
         x="623.71283"
         y="388.89536"
         id="text7038-5"><tspan
           sodipodi:role="line"
           id="tspan7040-0"
           x="623.71283"
           y="388.89536"
           style="font-size:10px;line-height:0">/var/log/mail.log</tspan></text>
      <g
         transform="matrix(0.79808918,0,0,1,211.34395,0.49981697)"
         style="opacity:0.8"
         id="g6878-2-8-3">
        <path
           sodipodi:nodetypes="cc"
           id="path10399-5-0-1"
           d="m 379.0037,375.25995 c 57.33614,-0.0482 57.61795,-0.10399 108.09772,-0.3665"
           style="fill:#4993ca;fill-opacity:0.98739492;fill-rule:evenodd;stroke:#4993ca;stroke-width:2.5;stroke-linecap:butt;stroke-linejoin:miter;stroke-miterlimit:4;stroke-dasharray:none;stroke-dashoffset:0;stroke-opacity:0.98739492;marker-end:none"
           inkscape:connector-curvature="0" />
        <path
           sodipodi:nodetypes="ccc"
           id="path6876-3-2-8"
           d="m 478.59617,370.53101 11.11168,4.54569 -11.61675,4.0406"
           style="fill:none;stroke:#4993ca;stroke-width:2.5;stroke-linecap:butt;stroke-linejoin:miter;stroke-miterlimit:4;stroke-dasharray:none;stroke-opacity:0.98823529"
           inkscape:connector-curvature="0" />
      </g>
      <text
         xml:space="preserve"
         style="color:#000000;font-style:normal;font-variant:normal;font-weight:normal;font-stretch:normal;line-height:0%;font-family:'Bitstream Vera Sans';text-indent:0;text-align:start;text-decoration:none;text-decoration-line:none;letter-spacing:normal;word-spacing:normal;text-transform:none;writing-mode:lr-tb;direction:ltr;text-anchor:start;display:inline;overflow:visible;visibility:visible;fill:#000000;fill-opacity:1;fill-rule:nonzero;stroke:none;stroke-width:1px;marker:none;enable-background:accumulate"
         x="354.11896"
         y="341.43835"
         id="text7238"><tspan
           sodipodi:role="line"
           id="tspan7240"
           x="354.11896"
           y="341.43835"
           style="font-size:16px;line-height:0">Route 1</tspan></text>
      <text
         xml:space="preserve"
         style="color:#000000;font-style:normal;font-variant:normal;font-weight:normal;font-stretch:normal;line-height:0%;font-family:'Bitstream Vera Sans';text-indent:0;text-align:start;text-decoration:none;text-decoration-line:none;letter-spacing:normal;word-spacing:normal;text-transform:none;writing-mode:lr-tb;direction:ltr;text-anchor:start;display:inline;overflow:visible;visibility:visible;opacity:1;fill:#000000;fill-opacity:1;fill-rule:nonzero;stroke:none;stroke-width:1px;marker:none;enable-background:accumulate"
         x="353.79486"
         y="439.61414"
         id="text7238-3"><tspan
           sodipodi:role="line"
           id="tspan7240-5"
           x="353.79486"
           y="439.61414"
           style="font-size:16px;line-height:0">Route 2</tspan></text>
    </g>
  </g>
</svg>
